{
  "name": "QuickItemSearch",
  "version": "2.1.6",
  "title": "Quick Item Search",
  "author": "raiguard",
  "contact": "https://lists.sr.ht/~raiguard/factorio-mods-discuss",
  "homepage": "https://sr.ht/~raiguard/factorio-mods",
  "factorio_version": "1.1",
  "dependencies": ["? base >= 1.1.20", "flib >= 0.7.0", "(?) space-exploration"],
  "description": "Quickly and easily search for items in your inventory or connected logistic network. Set temporary requests and quickly trash any items above your minimum requests."
}
