{
  "name": "rso-mod",
  "version": "6.2.21",
  "factorio_version": "1.1",
  "title": "Resource Spawner Overhaul",
  "author": "Dark, orzelek",
  "contact": "Message me on forums or use discussion board on mod portal",
  "homepage": "https://forums.factorio.com/viewforum.php?f=79",
  "description": "Overhauls resource spawning system.",
  "dependencies": ["base >= 1.0.0", "? bobenemies", "? bobores", "? 5dim_ores", "! bitumen"]
}